…
The result show the "correctedMFPvalue"=1 for all the genes regardless of the number of corresponding probes.This result shows that there is not any relationship between the number of significant probes and the multifunctionality of the genes as there is no significant p value for the gene sets.

``` r
enrichmentResult$results %>% arrange(CorrectedMFPvalue)
```

    ## # A tibble: 749 x 12
    ##    Name         ID     NumProbes NumGenes RawScore    Pval CorrectedPvalue
    ##    <chr>        <chr>      <int>    <int>    <dbl>   <dbl>           <dbl>
    ##  1 cellular li~ GO:00~        85       85   0.0917 8.00e-4           0.590
    ##  2 monocarboxy~ GO:00~        35       35   0.0715 9.00e-4           0.332
    ##  3 fatty acid ~ GO:00~        26       26   0.0656 1.50e-3           0.369
    ##  4 oxidation-r~ GO:00~        83       83   0.0875 1.60e-3           0.295
    ##  5 lipid metab~ GO:00~       107      107   0.104  2.00e-3           0.295
    ##  6 organic aci~ GO:00~        65       65   0.0776 2.20e-3           0.271
    ##  7 carboxylic ~ GO:00~        62       62   0.0775 2.20e-3           0.232
    ##  8 oxoacid met~ GO:00~        64       64   0.0778 2.20e-3           0.203
    ##  9 drug metabo~ GO:00~        53       53   0.0654 6.70e-3           0.549
    ## 10 steroid met~ GO:00~        22       22   0.0520 1.00e-2           0.738
    ## # ... with 739 more rows, and 5 more variables: MFPvalue <dbl>,
    ## #   CorrectedMFPvalue <dbl>, Multifunctionality <dbl>, `Same as` <chr>,
    ## #   GeneMembers <chr>
