…
``` r
#dev.off()
```

Nothing much is going on in any of these genes, we will now by look at genes that have multiple significant eQTMs.

``` r
filtered_cor_test_results <- lapply_results_PCA[lapply_results_PCA$adjusted.pvalue<=0.1,]
summary_cor_test_results <- filtered_cor_test_results %>% group_by(gene) %>% count()
summary_cor_test_results[order(-summary_cor_test_results$n),]
```

    ## # A tibble: 679 x 2
    ## # Groups:   gene [679]
    ##    gene                             n
    ##    <fct>                        <int>
    ##  1 CYP2D6:ENSG00000100197.16       22
    ##  2 L3MBTL1:ENSG00000185513.9       20
    ##  3 C21orf56:ENSG00000160284.10     20
    ##  4 FRG1B:ENSG00000149531.9         19
    ##  5 NLRP2:ENSG00000022556.11        19
    ##  6 CSDC2:ENSG00000172346.9         18
    ##  7 MAPK12:ENSG00000188130.9        18
    ##  8 NKAIN4:ENSG00000101198.10       18
    ##  9 ELL:ENSG00000105656.5           17
    ## 10 AC016629.2:ENSG00000213753.4    17
    ## # ... with 669 more rows
…
